Lab 3
…
When evaluated based on graphs and numerical, the number and ratio of Pretty Happy to Very Happy was the highest when the marital status was married. On the contrary, the marital status of separated showed the lowest number of Pretty Happy or Very Happy when we do not consider the variable no answer.

4. Does party affiliation affect the relationship you found in the last question?

partyrelation <- dat %>%
  group_by(marital, happiness, party) %>%
  summarise(count = n()) %>%
  arrange(desc(count))

## `summarise()` regrouping output by 'marital', 'happiness' (override with `.groups` argument)

print(partyrelation)

## # A tibble: 273 x 4
## # Groups:   marital, happiness [38]
##    marital       happiness    party              count
##    <chr>         <chr>        <chr>              <int>
##  1 Married       Pretty happy Not str democrat    3478
##  2 Married       Pretty happy Not str republican  2865
##  3 Married       Very happy   Not str democrat    2496
##  4 Married       Very happy   Not str republican  2389
##  5 Married       Pretty happy Independent         2323
##  6 Married       Pretty happy Strong democrat     2305
##  7 Married       Pretty happy Ind,near dem        1947
##  8 Married       Very happy   Strong democrat     1841
##  9 Married       Very happy   Strong republican   1778
## 10 Never married Pretty happy Not str democrat    1752
## #  with 263 more rows
…
When excluding the marital status of No answer, the average number of years of education was the highest for respondents who were Never married. This seems to be because unmarried people have more opportunities for education because they have no one to support, such as their spouses or children.

6. Explore two more interesting questions, and answer those questions using the GSS data.

Q1.How does the marital status affect income?

dat %>%
  group_by(marital, income) %>%
  drop_na %>%
  summarize(count = n()) %>%
  arrange(desc(count))

## `summarise()` regrouping output by 'marital' (override with `.groups` argument)

## # A tibble: 86 x 3
## # Groups:   marital [6]
##    marital       income         count
##    <chr>         <chr>          <int>
##  1 Married       $25000 or more 18368
##  2 Never married $25000 or more  5376
##  3 Divorced      $25000 or more  3535
##  4 Married       $10000 - 14999  2917
##  5 Married       $20000 - 24999  2689
##  6 Married       $15000 - 19999  2495
##  7 Married       Refused         2206
##  8 Never married $10000 - 14999  1487
##  9 Widowed       $25000 or more  1276
## 10 Never married $15000 - 19999  1183
## #  with 76 more rows
…
Married people overwhelmingly had the highest income. This may be due to the creation of an environment in which two people can earn stable income. The second highest grossing is from unmarried people, who are believed to have made higher income because they have no family to support and can build a stable career.

Q2. What is the effect of religion on happiness?

dat %>%
  group_by(belief, happiness) %>%
  summarise(count = n()) %>%
  arrange(desc(count))

## `summarise()` regrouping output by 'belief' (override with `.groups` argument)

## # A tibble: 80 x 3
## # Groups:   belief [17]
##    belief         happiness      count
##    <chr>          <chr>          <int>
##  1 Protestant     Pretty happy   19592
##  2 Protestant     Very happy     11304
##  3 Catholic       Pretty happy    9640
##  4 Catholic       Very happy      5267
##  5 Protestant     Not too happy   4329
##  6 Catholic       Not too happy   2149
##  7 None           Pretty happy    1867
##  8 Protestant     Not applicable  1611
##  9 Not applicable Not applicable  1518
## 10 None           Very happy       856
## #  with 70 more rows
…
